Adc9228_top_axi_v2/Adc9228_top_axi.sim/sim_1/behav/xsim/dump.vcd
$date
   Mon Sep  4 19:31:49 2023
$end
$version
  2017.4
$end
$timescale
  1ps
$end
$scope module async_fifo_unit_test $end
$var integer 32 ! svut_test_number $end
$var integer 32 " svut_status $end
$var integer 32 # svut_warning $end
$var integer 32 $ svut_critical $end
$var integer 32 % svut_error $end
$var integer 32 & svut_error_total $end
$var integer 32 ' svut_nb_test $end
$var integer 32 ( svut_nb_test_success $end
$var integer 32 ) i $end
$var reg 1 * wclk $end
$var reg 1 + wrst_n $end
$var reg 1 , winc $end
$var reg 16 - wdata [15:0] $end
$var wire 1 . wfull $end
$var wire 1 / awfull $end
$var reg 1 0 rclk $end
$var reg 1 1 rrst_n $end
$var reg 1 2 rinc $end
$var wire 16 3 rdata [15:0] $end
$var wire 1 4 rempty $end
$var wire 1 5 arempty $end
$var parameter 32 6 DSIZE [31:0] $end
$var parameter 32 7 ASIZE [31:0] $end
$scope module dut $end
$var wire 1 8 wclk $end
$var wire 1 9 wrst_n $end
$var wire 1 : winc $end
$var wire 16 ; wdata [15:0] $end
$var wire 1 . wfull $end
$var wire 1 / awfull $end
$var wire 1 < rclk $end
$var wire 1 = rrst_n $end
$var wire 1 > rinc $end
$var wire 16 3 rdata [15:0] $end
$var wire 1 4 rempty $end
$var wire 1 5 arempty $end
$var wire 4 ? waddr [3:0] $end
$var wire 4 @ raddr [3:0] $end
$var wire 5 A wptr [4:0] $end
$var wire 5 B rptr [4:0] $end
$var wire 5 C wq2_rptr [4:0] $end
$var wire 5 D rq2_wptr [4:0] $end
$var parameter 32 E DSIZE [31:0] $end
$var parameter 32 F ASIZE [31:0] $end
$var parameter 32 G FALLTHROUGH [31:0] $end
$scope module sync_r2w $end
$var wire 1 8 wclk $end
$var wire 1 9 wrst_n $end
$var wire 5 B rptr [4:0] $end
$var reg 5 H wq2_rptr [4:0] $end
$var reg 5 I wq1_rptr [4:0] $end
$var parameter 32 J ASIZE [31:0] $end
$upscope $end
$scope module sync_w2r $end
$var wire 1 < rclk $end
$var wire 1 = rrst_n $end
$var reg 5 K rq2_wptr [4:0] $end
$var wire 5 A wptr [4:0] $end
$var reg 5 L rq1_wptr [4:0] $end
$var parameter 32 M ASIZE [31:0] $end
$upscope $end
$scope module wptr_full $end
$var wire 1 8 wclk $end
$var wire 1 9 wrst_n $end
$var wire 1 : winc $end
$var wire 5 C wq2_rptr [4:0] $end
$var reg 1 N wfull $end
$var reg 1 O awfull $end
$var wire 4 ? waddr [3:0] $end
$var reg 5 P wptr [4:0] $end
$var reg 5 Q wbin [4:0] $end
$var wire 5 R wgraynext [4:0] $end
$var wire 5 S wbinnext [4:0] $end
$var wire 5 T wgraynextp1 [4:0] $end
$var wire 1 U awfull_val $end
$var wire 1 V wfull_val $end
$var parameter 32 W ADDRSIZE [31:0] $end
$upscope $end
$scope module fifomem $end
$var wire 1 8 wclk $end
$var wire 1 : wclken $end
$var wire 4 ? waddr [3:0] $end
$var wire 16 ; wdata [15:0] $end
$var wire 1 . wfull $end
$var wire 1 < rclk $end
$var wire 1 > rclken $end
$var wire 4 @ raddr [3:0] $end
$var wire 16 3 rdata [15:0] $end
$var reg 16 X rdata_r [15:0] $end
$var parameter 32 Y DATASIZE [31:0] $end
$var parameter 32 Z ADDRSIZE [31:0] $end
$var parameter 32 [ FALLTHROUGH [31:0] $end
$var parameter 32 \ DEPTH [31:0] $end
$upscope $end
$scope module rptr_empty $end
$var wire 1 < rclk $end
$var wire 1 = rrst_n $end
$var wire 1 > rinc $end
$var wire 5 D rq2_wptr [4:0] $end
$var reg 1 ] rempty $end
$var reg 1 ^ arempty $end
$var wire 4 @ raddr [3:0] $end
$var reg 5 _ rptr [4:0] $end
$var reg 5 ` rbin [4:0] $end
$var wire 5 a rgraynext [4:0] $end
$var wire 5 b rbinnext [4:0] $end
$var wire 5 c rgraynextm1 [4:0] $end
$var wire 1 d arempty_val $end
$var wire 1 e rempty_val $end
$var parameter 32 f ADDRSIZE [31:0] $end
$upscope $end
$upscope $end
$scope task setup $end
$var reg 1 g msg $end
$upscope $end
$scope task teardown $end
$var reg 1 h msg $end
$upscope $end
$scope task run $end
$var reg 1 i msg $end
$upscope $end
$upscope $end
$enddefinitions $end
#0
$dumpvars
b0 !
b0 "
b0 #
b0 $
b0 %
b0 &
b0 '
b0 (
bx )
0*
0+
0,
b0 -
0.
0/
00
01
02
bx 3
14
05
b10000 6
b100 7
08
09
0:
b0 ;
0<
0=
0>
b0 ?
b0 @
b0 A
b0 B
b0 C
b0 D
b10000 E
b100 F
b1010100010100100101010101000101 G
b0 H
b0 I
b100 J
b0 K
b0 L
b100 M
0N
0O
b0 P
b0 Q
b0 R
b0 S
b1 T
0U
0V
b100 W
bx X
b10000 Y
b100 Z
b1010100010100100101010101000101 [
b10000 \
1]
0^
b0 _
b0 `
b0 a
b0 b
b1 c
0d
1e
b100 f
1g
xh
0i
$end
#5000
10
1<
b0 K
1]
0^
b0 _
b0 `
#10000
00
0<
#15000
10
1<
b0 K
1]
0^
b0 _
b0 `
#20000
00
0<
#25000
10
1<
b0 K
1]
0^
b0 _
b0 `
#30000
00
0<
#35000
10
1<
b0 K
1]
0^
b0 _
b0 `
#40000
00
0<
#45000
10
1<
b0 K
1]
0^
b0 _
b0 `
#50000
1*
00
18
0<
b0 H
0N
0O
b0 P
b0 Q
#55000
10
1<
b0 K
1]
0^
b0 _
b0 `
#60000
00
0<
#65000
10
1<
b0 K
1]
0^
b0 _
b0 `
#70000
00
0<
#75000
10
1<
b0 K
1]
0^
b0 _
b0 `
#80000
00
0<
#85000
10
1<
b0 K
1]
0^
b0 _
b0 `
#90000
00
0<
#95000
10
1<
b0 K
1]
0^
b0 _
b0 `
#100000
0*
1+
00
11
08
19
0<
1=
#105000
10
1<
b0 K
1]
0^
b0 _
b0 `
#110000
00
0<
#115000
10
1<
b0 K
1]
0^
b0 _
b0 `
#120000
00
0<
#125000
10
1<
b0 K
1]
0^
b0 _
b0 `
#130000
00
0<
#135000
10
1<
b0 K
1]
0^
b0 _
b0 `
#140000
00
0<
#145000
10
1<
b0 K
1]
0^
b0 _
b0 `
#150000
b1 '
1*
00
18
0<
b0 H
0N
0O
b0 P
b0 Q
0h
#155000
10
1<
b0 K
1]
0^
b0 _
b0 `
#160000
00
0<
#165000
10
1<
b0 K
1]
0^
b0 _
b0 `
#170000
00
0<
#175000
10
1<
b0 K
1]
0^
b0 _
b0 `
#180000
00
0<
#185000
10
1<
b0 K
1]
0^
b0 _
b0 `
#190000
00
0<
#195000
10
1<
b0 K
1]
0^
b0 _
b0 `
#200000
b1 !
b1 (
0*
0+
b0 -
00
01
08
09
0<
0=
b0 H
b0 K
0N
0O
b0 P
b0 Q
1]
0^
b0 _
b0 `
#205000
10
1<
b0 K
1]
0^
b0 _
b0 `
#210000
00
0<
#215000
10
1<
b0 K
1]
0^
b0 _
b0 `
#220000
00
0<
#225000
10
1<
b0 K
1]
0^
b0 _
b0 `
#230000
00
0<
#235000
10
1<
b0 K
1]
0^
b0 _
b0 `
#240000
00
0<
#245000
10
1<
b0 K
1]
0^
b0 _
b0 `
#250000
1*
00
18
0<
b0 H
0N
0O
b0 P
b0 Q
#255000
10
1<
b0 K
1]
0^
b0 _
b0 `
#260000
00
0<
#265000
10
1<
b0 K
1]
0^
b0 _
b0 `
#270000
00
0<
#275000
10
1<
b0 K
1]
0^
b0 _
b0 `
#280000
00
0<
#285000
10
1<
b0 K
1]
0^
b0 _
b0 `
#290000
00
0<
#295000
10
1<
b0 K
1]
0^
b0 _
b0 `
#300000
0*
1+
00
11
08
19
0<
1=
#305000
10
1<
b0 K
1]
0^
b0 _
b0 `
#310000
00
0<
#315000
10
1<
b0 K
1]
0^
b0 _
b0 `
#320000
00
0<
#325000
10
1<
b0 K
1]
0^
b0 _
b0 `
#330000
00
0<
#335000
10
1<
b0 K
1]
0^
b0 _
b0 `
#340000
00
0<
#345000
10
1<
b0 K
1]
0^
b0 _
b0 `
#350000
b10 '
1*
00
18
0<
b0 H
0N
0O
b0 P
b0 Q
#355000
10
1<
b0 K
1]
0^
b0 _
b0 `
#360000
00
0<
#365000
10
1<
b0 K
1]
0^
b0 _
b0 `
#370000
00
0<
#375000
10
1<
b0 K
1]
0^
b0 _
b0 `
#380000
00
0<
#385000
10
1<
b0 K
1]
0^
b0 _
b0 `
#390000
00
0<
#395000
10
1<
b0 K
1]
0^
b0 _
b0 `
#400000
0*
00
08
0<
#405000
10
1<
b0 K
1]
0^
b0 _
b0 `
#410000
00
0<
#415000
10
1<
b0 K
1]
0^
b0 _
b0 `
#420000
00
0<
#425000
10
1<
b0 K
1]
0^
b0 _
b0 `
#430000
00
0<
#435000
10
1<
b0 K
1]
0^
b0 _
b0 `
#440000
00
0<
#445000
10
1<
b0 K
1]
0^
b0 _
b0 `
#450000
1*
1,
b1010 -
00
b1010 3
18
1:
b1010 ;
0<
b0 H
0N
0O
b0 P
b0 Q
b1 R
b1 S
b11 T
#455000
10
1<
b0 K
1]
0^
b0 _
b0 `
#460000
00
0<
#465000
10
1<
b0 K
1]
0^
b0 _
b0 `
#470000
00
0<
#475000
10
1<
b0 K
1]
0^
b0 _
b0 `
#480000
00
0<
#485000
10
1<
b0 K
1]
0^
b0 _
b0 `
#490000
00
0<
#495000
10
1<
b0 K
1]
0^
b0 _
b0 `
#500000
0*
00
08
0<
#505000
10
1<
b0 K
1]
0^
b0 _
b0 `
#510000
00
0<
#515000
10
1<
b0 K
1]
0^
b0 _
b0 `
#520000
00
0<
#525000
10
1<
b0 K
1]
0^
b0 _
b0 `
#530000
00
0<
#535000
10
1<
b0 K
1]
0^
b0 _
b0 `
#540000
00
0<
#545000
10
1<
b0 K
1]
0^
b0 _
b0 `
#550000
1*
0,
00
18
0:
0<
b1 ?
b1 A
b0 H
0N
0O
b1 P
b1 Q
b1 R
b1 S
b11 T
#555000
10
1<
b0 K
b1 L
1]
0^
b0 _
b0 `
#560000
00
0<
#565000
10
1<
b1 D
b1 K
1]
0^
b0 _
b0 `
1d
0e
#570000
00
0<
#575000
10
12
04
15
1<
1>
b1 K
0]
1^
b0 _
b0 `
b1 a
b1 b
b11 c
0d
1e
#580000
00
0<
#585000
10
bx 3
14
05
1<
b1 @
b1 B
b1 K
1]
0^
b1 _
b1 `
b1 b
#590000
00
0<
#595000
10
1<
b1 K
1]
0^
b1 _
b1 `
#600000
0*
00
08
0<
#605000
10
1<
b1 K
1]
0^
b1 _
b1 `
#610000
00
0<
#615000
10
1<
b1 K
1]
0^
b1 _
b1 `
#620000
00
0<
#625000
10
1<
b1 K
1]
0^
b1 _
b1 `
#630000
b10 !
b10 (
0+
b0 -
00
01
02
b1010 3
09
b0 ;
0<
0=
0>
b0 ?
b0 @
b0 A
b0 B
b0 D
b0 H
b0 K
b0 L
0N
0O
b0 P
b0 Q
b0 R
b0 S
b1 T
1]
0^
b0 _
b0 `
b0 a
b0 b
b1 c
0d
1e
#635000
10
1<
b0 K
1]
0^
b0 _
b0 `
#640000
00
0<
#645000
10
1<
b0 K
1]
0^
b0 _
b0 `
#650000
1*
00
18
0<
b0 H
0N
0O
b0 P
b0 Q
#655000
10
1<
b0 K
1]
0^
b0 _
b0 `
#660000
00
0<
#665000
10
1<
b0 K
1]
0^
b0 _
b0 `
#670000
00
0<
#675000
10
1<
b0 K
1]
0^
b0 _
b0 `
#680000
00
0<
#685000
10
1<
b0 K
1]
0^
b0 _
b0 `
#690000
00
0<
#695000
10
1<
b0 K
1]
0^
b0 _
b0 `
#700000
0*
00
08
0<
#705000
10
1<
b0 K
1]
0^
b0 _
b0 `
#710000
00
0<
#715000
10
1<
b0 K
1]
0^
b0 _
b0 `
#720000
00
0<
#725000
10
1<
b0 K
1]
0^
b0 _
b0 `
#730000
1+
00
11
19
0<
1=
#735000
10
1<
b0 K
1]
0^
b0 _
b0 `
#740000
00
0<
#745000
10
1<
b0 K
1]
0^
b0 _
b0 `
#750000
1*
00
18
0<
b0 H
0N
0O
b0 P
b0 Q
#755000
10
1<
b0 K
1]
0^
b0 _
b0 `
#760000
00
0<
#765000
10
1<
b0 K
1]
0^
b0 _
b0 `
#770000
00
0<
#775000
10
1<
b0 K
1]
0^
b0 _
b0 `
#780000
00
0<
#785000
10
1<
b0 K
1]
0^
b0 _
b0 `
#790000
00
0<
#795000
10
1<
b0 K
1]
0^
b0 _
b0 `
#800000
0*
00
08
0<
#805000
10
1<
b0 K
1]
0^
b0 _
b0 `
#810000
00
0<
#815000
10
1<
b0 K
1]
0^
b0 _
b0 `
#820000
00
0<
#825000
10
1<
b0 K
1]
0^
b0 _
b0 `
#830000
00
0<
#835000
10
1<
b0 K
1]
0^
b0 _
b0 `
#840000
00
0<
#845000
10
1<
b0 K
1]
0^
b0 _
b0 `
#850000
b11 '
b0 )
1*
00
18
0<
b0 H
0N
0O
b0 P
b0 Q
#855000
10
1<
b0 K
1]
0^
b0 _
b0 `
#860000
00
0<
#865000
10
1<
b0 K
1]
0^
b0 _
b0 `
#870000
00
0<
#875000
10
1<
b0 K
1]
0^
b0 _
b0 `
#880000
00
0<
#885000
10
1<
b0 K
1]
0^
b0 _
b0 `
#890000
00
0<
#895000
10
1<
b0 K
1]
0^
b0 _
b0 `
#900000
b1 )
0*
1,
b0 -
00
08
1:
0<
b1 R
b1 S
b11 T
#905000
10
1<
b0 K
1]
0^
b0 _
b0 `
#910000
00
0<
#915000
10
1<
b0 K
1]
0^
b0 _
b0 `
#920000
00
0<
#925000
10
1<
b0 K
1]
0^
b0 _
b0 `
#930000
00
0<
#935000
10
1<
b0 K
1]
0^
b0 _
b0 `
#940000
00
0<
#945000
10
1<
b0 K
1]
0^
b0 _
b0 `
#950000
1*
00
b0 3
18
0<
b1 ?
b1 A
b0 H
0N
0O
b1 P
b1 Q
b11 R
b10 S
b10 T
#955000
10
1<
b0 K
b1 L
1]
0^
b0 _
b0 `
#960000
00
0<
#965000
10
1<
b1 D
b1 K
1]
0^
b0 _
b0 `
1d
0e
#970000
00
0<
#975000
10
04
15
1<
b1 K
0]
1^
b0 _
b0 `
b0 b
#980000
00
0<
#985000
10
1<
b1 K
0]
1^
b0 _
b0 `
#990000
00
0<
#995000
10
1<
b1 K
0]
1^
b0 _
b0 `
#1000000
b10 )
0*
b1 -
00
08
b1 ;
0<
#1005000
10
1<
b1 K
0]
1^
b0 _
b0 `
#1010000
00
0<
#1015000
10
1<
b1 K
0]
1^
b0 _
b0 `
#1020000
00
0<
#1025000
10
1<
b1 K
0]
1^
b0 _
b0 `
#1030000
00
0<
#1035000
10
1<
b1 K
0]
1^
b0 _
b0 `
#1040000
00
0<
#1045000
10
1<
b1 K
0]
1^
b0 _
b0 `
#1050000
1*
00
18
0<
b10 ?
b11 A
b0 H
0N
0O
b11 P
b10 Q
b10 R
b11 S
b110 T
#1055000
10
1<
b1 K
b11 L
0]
1^
b0 _
b0 `
#1060000
00
0<
#1065000
10
1<
b11 D
b11 K
0]
1^
b0 _
b0 `
0d
#1070000
00
0<
#1075000
10
05
1<
b11 K
0]
0^
b0 _
b0 `
#1080000
00
0<
#1085000
10
1<
b11 K
0]
0^
b0 _
b0 `
#1090000
00
0<
#1095000
10
1<
b11 K
0]
0^
b0 _
b0 `
#1100000
b11 )
0*
b10 -
00
08
b10 ;
0<
#1105000
10
1<
b11 K
0]
0^
b0 _
b0 `
#1110000
00
0<
#1115000
10
1<
b11 K
0]
0^
b0 _
b0 `
#1120000
00
0<
#1125000
10
1<
b11 K
0]
0^
b0 _
b0 `
#1130000
00
0<
#1135000
10
1<
b11 K
0]
0^
b0 _
b0 `
#1140000
00
0<
#1145000
10
1<
b11 K
0]
0^
b0 _
b0 `
#1150000
1*
00
18
0<
b11 ?
b10 A
b0 H
0N
0O
b10 P
b11 Q
b110 R
b100 S
b111 T
#1155000
10
1<
b11 K
b10 L
0]
0^
b0 _
b0 `
#1160000
00
0<
#1165000
10
1<
b10 D
b10 K
0]
0^
b0 _
b0 `
#1170000
00
0<
#1175000
10
1<
b10 K
0]
0^
b0 _
b0 `
#1180000
00
0<
#1185000
10
1<
b10 K
0]
0^
b0 _
b0 `
#1190000
00
0<
#1195000
10
1<
b10 K
0]
0^
b0 _
b0 `
#1200000
b100 )
0*
b11 -
00
08
b11 ;
0<
#1205000
10
1<
b10 K
0]
0^
b0 _
b0 `
#1210000
00
0<
#1215000
10
1<
b10 K
0]
0^
b0 _
b0 `
#1220000
00
0<
#1225000
10
1<
b10 K
0]
0^
b0 _
b0 `
#1230000
00
0<
#1235000
10
1<
b10 K
0]
0^
b0 _
b0 `
#1240000
00
0<
#1245000
10
1<
b10 K
0]
0^
b0 _
b0 `
#1250000
1*
00
18
0<
b100 ?
b110 A
b0 H
0N
0O
b110 P
b100 Q
b111 R
b101 S
b101 T
#1255000
10
1<
b10 K
b110 L
0]
0^
b0 _
b0 `
#1260000
00
0<
#1265000
10
1<
b110 D
b110 K
0]
0^
b0 _
b0 `
#1270000
00
0<
#1275000
10
1<
b110 K
0]
0^
b0 _
b0 `
#1280000
00
0<
#1285000
10
1<
b110 K
0]
0^
b0 _
b0 `
#1290000
00
0<
#1295000
10
1<
b110 K
0]
0^
b0 _
b0 `
#1300000
b101 )
0*
b100 -
00
08
b100 ;
0<
#1305000
10
1<
b110 K
0]
0^
b0 _
b0 `
#1310000
00
0<
#1315000
10
1<
b110 K
0]
0^
b0 _
b0 `
#1320000
00
0<
#1325000
10
1<
b110 K
0]
0^
b0 _
b0 `
#1330000
00
0<
#1335000
10
1<
b110 K
0]
0^
b0 _
b0 `
#1340000
00
0<
#1345000
10
1<
b110 K
0]
0^
b0 _
b0 `
#1350000
1*
00
18
0<
b101 ?
b111 A
b0 H
0N
0O
b111 P
b101 Q
b101 R
b110 S
b100 T
#1355000
10
1<
b110 K
b111 L
0]
0^
b0 _
b0 `
#1360000
00
0<
#1365000
10
1<
b111 D
b111 K
0]
0^
b0 _
b0 `
#1370000
00
0<
#1375000
10
1<
b111 K
0]
0^
b0 _
b0 `
#1380000
00
0<
#1385000
10
1<
b111 K
0]
0^
b0 _
b0 `
#1390000
00
0<
#1395000
10
1<
b111 K
0]
0^
b0 _
b0 `
#1400000
b110 )
0*
b101 -
00
08
b101 ;
0<
#1405000
10
1<
b111 K
0]
0^
b0 _
b0 `
#1410000
00
0<
#1415000
10
1<
b111 K
0]
0^
b0 _
b0 `
#1420000
00
0<
#1425000
10
1<
b111 K
0]
0^
b0 _
b0 `
#1430000
00
0<
#1435000
10
1<
b111 K
0]
0^
b0 _
b0 `
#1440000
00
0<
#1445000
10
1<
b111 K
0]
0^
b0 _
b0 `
#1450000
1*
00
18
0<
b110 ?
b101 A
b0 H
0N
0O
b101 P
b110 Q
b100 R
b111 S
b1100 T
#1455000
10
1<
b111 K
b101 L
0]
0^
b0 _
b0 `
#1460000
00
0<
#1465000
10
1<
b101 D
b101 K
0]
0^
b0 _
b0 `
#1470000
00
0<
#1475000
10
1<
b101 K
0]
0^
b0 _
b0 `
#1480000
00
0<
#1485000
10
1<
b101 K
0]
0^
b0 _
b0 `
#1490000
00
0<
#1495000
10
1<
b101 K
0]
0^
b0 _
b0 `
#1500000
b111 )
0*
b110 -
00
08
b110 ;
0<
#1505000
10
1<
b101 K
0]
0^
b0 _
b0 `
#1510000
00
0<
#1515000
10
1<
b101 K
0]
0^
b0 _
b0 `
#1520000
00
0<
#1525000
10
1<
b101 K
0]
0^
b0 _
b0 `
#1530000
00
0<
#1535000
10
1<
b101 K
0]
0^
b0 _
b0 `
#1540000
00
0<
#1545000
10
1<
b101 K
0]
0^
b0 _
b0 `
#1550000
1*
00
18
0<
b111 ?
b100 A
b0 H
0N
0O
b100 P
b111 Q
b1100 R
b1000 S
b1101 T
#1555000
10
1<
b101 K
b100 L
0]
0^
b0 _
b0 `
#1560000
00
0<
#1565000
10
1<
b100 D
b100 K
0]
0^
b0 _
b0 `
#1570000
00
0<
#1575000
10
1<
b100 K
0]
0^
b0 _
b0 `
#1580000
00
0<
#1585000
10
1<
b100 K
0]
0^
b0 _
b0 `
#1590000
00
0<
#1595000
10
1<
b100 K
0]
0^
b0 _
b0 `
#1600000
b1000 )
0*
b111 -
00
08
b111 ;
0<
#1605000
10
1<
b100 K
0]
0^
b0 _
b0 `
#1610000
00
0<
#1615000
10
1<
b100 K
0]
0^
b0 _
b0 `
#1620000
00
0<
#1625000
10
1<
b100 K
0]
0^
b0 _
b0 `
#1630000
00
0<
#1635000
10
1<
b100 K
0]
0^
b0 _
b0 `
#1640000
00
0<
#1645000
10
1<
b100 K
0]
0^
b0 _
b0 `
#1650000
1*
00
18
0<
b1000 ?
b1100 A
b0 H
0N
0O
b1100 P
b1000 Q
b1101 R
b1001 S
b1111 T
#1655000
10
1<
b100 K
b1100 L
0]
0^
b0 _
b0 `
#1660000
00
0<
#1665000
10
1<
b1100 D
b1100 K
0]
0^
b0 _
b0 `
#1670000
00
0<
#1675000
10
1<
b1100 K
0]
0^
b0 _
b0 `
#1680000
00
0<
#1685000
10
1<
b1100 K
0]
0^
b0 _
b0 `
#1690000
00
0<
#1695000
10
1<
b1100 K
0]
0^
b0 _
b0 `
#1700000
b1001 )
0*
b1000 -
00
08
b1000 ;
0<
#1705000
10
1<
b1100 K
0]
0^
b0 _
b0 `
#1710000
00
0<
#1715000
10
1<
b1100 K
0]
0^
b0 _
b0 `
#1720000
00
0<
#1725000
10
1<
b1100 K
0]
0^
b0 _
b0 `
#1730000
00
0<
#1735000
10
1<
b1100 K
0]
0^
b0 _
b0 `
#1740000
00
0<
#1745000
10
1<
b1100 K
0]
0^
b0 _
b0 `
#1750000
1*
00
18
0<
b1001 ?
b1101 A
b0 H
0N
0O
b1101 P
b1001 Q
b1111 R
b1010 S
b1110 T
#1755000
10
1<
b1100 K
b1101 L
0]
0^
b0 _
b0 `
#1760000
00
0<
#1765000
10
1<
b1101 D
b1101 K
0]
0^
b0 _
b0 `
#1770000
00
0<
#1775000
10
1<
b1101 K
0]
0^
b0 _
b0 `
#1780000
00
0<
#1785000
10
1<
b1101 K
0]
0^
b0 _
b0 `
#1790000
00
0<
#1795000
10
1<
b1101 K
0]
0^
b0 _
b0 `
#1800000
b1010 )
0*
b1001 -
00
08
b1001 ;
0<
#1805000
10
1<
b1101 K
0]
0^
b0 _
b0 `
#1810000
00
0<
#1815000
10
1<
b1101 K
0]
0^
b0 _
b0 `
#1820000
00
0<
#1825000
10
1<
b1101 K
0]
0^
b0 _
b0 `
#1830000
00
0<
#1835000
10
1<
b1101 K
0]
0^
b0 _
b0 `
#1840000
00
0<
#1845000
10
1<
b1101 K
0]
0^
b0 _
b0 `
#1850000
1*
00
18
0<
b1010 ?
b1111 A
b0 H
0N
0O
b1111 P
b1010 Q
b1110 R
b1011 S
b1010 T
#1855000
10
1<
b1101 K
b1111 L
0]
0^
b0 _
b0 `
#1860000
00
0<
#1865000
10
1<
b1111 D
b1111 K
0]
0^
b0 _
b0 `
#1870000
00
0<
#1875000
10
1<
b1111 K
0]
0^
b0 _
b0 `
#1880000
00
0<
#1885000
10
1<
b1111 K
0]
0^
b0 _
b0 `
#1890000
00
0<
#1895000
10
1<
b1111 K
0]
0^
b0 _
b0 `
#1900000
0*
0,
00
08
0:
0<
b1111 R
b1010 S
b1110 T
#1905000
10
1<
b1111 K
0]
0^
b0 _
b0 `
#1910000
00
0<
#1915000
10
1<
b1111 K
0]
0^
b0 _
b0 `
#1920000
00
0<
#1925000
10
1<
b1111 K
0]
0^
b0 _
b0 `
#1930000
00
0<
#1935000
10
1<
b1111 K
0]
0^
b0 _
b0 `
#1940000
00
0<
#1945000
10
1<
b1111 K
0]
0^
b0 _
b0 `
#1950000
1*
00
18
0<
b0 H
0N
0O
b1111 P
b1010 Q
#1955000
10
1<
b1111 K
0]
0^
b0 _
b0 `
#1960000
00
0<
#1965000
10
1<
b1111 K
0]
0^
b0 _
b0 `
#1970000
00
0<
#1975000
10
1<
b1111 K
0]
0^
b0 _
b0 `
#1980000
00
0<
#1985000
10
1<
b1111 K
0]
0^
b0 _
b0 `
#1990000
00
0<
#1995000
10
1<
b1111 K
0]
0^
b0 _
b0 `
#2000000
0*
00
08
0<
#2005000
b0 )
10
12
1<
1>
b1111 K
0]
0^
b0 _
b0 `
b1 a
b1 b
b11 c
#2010000
00
0<
#2015000
b1 )
10
b1 3
1<
b1 @
b1 B
b1111 K
0]
0^
b1 _
b1 `
b11 a
b10 b
b10 c
#2020000
00
0<
#2025000
b10 )
10
b10 3
1<
b10 @
b11 B
b1111 K
0]
0^
b11 _
b10 `
b10 a
b11 b
b110 c
#2030000
00
0<
#2035000
b11 )
10
b11 3
1<
b11 @
b10 B
b1111 K
0]
0^
b10 _
b11 `
b110 a
b100 b
b111 c
#2040000
00
0<
#2045000
b100 )
10
b100 3
1<
b100 @
b110 B
b1111 K
0]
0^
b110 _
b100 `
b111 a
b101 b
b101 c
#2050000
1*
00
18
0<
b0 H
b110 I
0N
0O
b1111 P
b1010 Q
#2055000
b101 )
10
b101 3
1<
b101 @
b111 B
b1111 K
0]
0^
b111 _
b101 `
b101 a
b110 b
b100 c
#2060000
00
0<
#2065000
b110 )
10
b110 3
1<
b110 @
b101 B
b1111 K
0]
0^
b101 _
b110 `
b100 a
b111 b
b1100 c
#2070000
00
0<
#2075000
b111 )
10
b111 3
1<
b111 @
b100 B
b1111 K
0]
0^
b100 _
b111 `
b1100 a
b1000 b
b1101 c
#2080000
00
0<
#2085000
b1000 )
10
b1000 3
1<
b1000 @
b1100 B
b1111 K
0]
0^
b1100 _
b1000 `
b1101 a
b1001 b
b1111 c
1d
#2090000
00
0<
#2095000
b1001 )
10
b1001 3
15
1<
b1001 @
b1101 B
b1111 K
0]
1^
b1101 _
b1001 `
b1111 a
b1010 b
b1110 c
0d
1e
#2100000
0*
00
08
0<
#2105000
b1010 )
10
bx 3
14
05
1<
b1010 @
b1111 B
b1111 K
1]
0^
b1111 _
b1010 `
b1010 b
#2110000
00
0<
#2115000
10
1<
b1111 K
1]
0^
b1111 _
b1010 `
#2120000
00
0<
#2125000
10
1<
b1111 K
1]
0^
b1111 _
b1010 `
#2130000
00
0<
#2135000
10
1<
b1111 K
1]
0^
b1111 _
b1010 `
#2140000
00
0<
#2145000
10
1<
b1111 K
1]
0^
b1111 _
b1010 `
#2150000
1*
00
18
0<
b110 C
b110 H
b1111 I
0N
0O
b1111 P
b1010 Q
#2155000
b11 !
b11 (
0+
b0 -
10
01
02
b0 3
09
b0 ;
1<
0=
0>
b0 ?
b0 @
b0 A
b0 B
b0 C
b0 D
b0 H
b0 I
b0 K
b0 L
0N
0O
b0 P
b0 Q
b0 R
b0 S
b1 T
1]
0^
b0 _
b0 `
b0 a
b0 b
b1 c
1e
#2160000
00
0<
#2165000
10
1<
b0 K
1]
0^
b0 _
b0 `
#2170000
00
0<
#2175000
10
1<
b0 K
1]
0^
b0 _
b0 `
#2180000
00
0<
#2185000
10
1<
b0 K
1]
0^
b0 _
b0 `
#2190000
00
0<
#2195000
10
1<
b0 K
1]
0^
b0 _
b0 `
#2200000
0*
00
08
0<
#2205000
10
1<
b0 K
1]
0^
b0 _
b0 `
#2210000
00
0<
#2215000
10
1<
b0 K
1]
0^
b0 _
b0 `
#2220000
00
0<
#2225000
10
1<
b0 K
1]
0^
b0 _
b0 `
#2230000
00
0<
#2235000
10
1<
b0 K
1]
0^
b0 _
b0 `
#2240000
00
0<
#2245000
10
1<
b0 K
1]
0^
b0 _
b0 `
#2250000
1*
00
18
0<
b0 H
0N
0O
b0 P
b0 Q
#2255000
1+
10
11
19
1<
1=
b0 K
1]
0^
b0 _
b0 `
#2260000
00
0<
#2265000
10
1<
b0 K
1]
0^
b0 _
b0 `
#2270000
00
0<
#2275000
10
1<
b0 K
1]
0^
b0 _
b0 `
#2280000
00
0<
#2285000
10
1<
b0 K
1]
0^
b0 _
b0 `
#2290000
00
0<
#2295000
10
1<
b0 K
1]
0^
b0 _
b0 `
#2300000
0*
00
08
0<
#2305000
10
1<
b0 K
1]
0^
b0 _
b0 `
#2310000
00
0<
#2315000
10
1<
b0 K
1]
0^
b0 _
b0 `
#2320000
00
0<
#2325000
10
1<
b0 K
1]
0^
b0 _
b0 `
#2330000
00
0<
#2335000
10
1<
b0 K
1]
0^
b0 _
b0 `
#2340000
00
0<
#2345000
10
1<
b0 K
1]
0^
b0 _
b0 `
#2350000
b100 '
b0 )
1*
1,
00
18
1:
0<
b0 H
0N
0O
b0 P
b0 Q
b1 R
b1 S
b11 T
#2355000
10
1<
b0 K
1]
0^
b0 _
b0 `
#2360000
00
0<
#2365000
10
1<
b0 K
1]
0^
b0 _
b0 `
#2370000
00
0<
#2375000
10
1<
b0 K
1]
0^
b0 _
b0 `
#2380000
00
0<
#2385000
10
1<
b0 K
1]
0^
b0 _
b0 `
#2390000
00
0<
#2395000
10
1<
b0 K
1]
0^
b0 _
b0 `
#2400000
b1 )
0*
b0 -
00
08
0<
#2405000
10
1<
b0 K
1]
0^
b0 _
b0 `
#2410000
00
0<
#2415000
10
1<
b0 K
1]
0^
b0 _
b0 `
#2420000
00
0<
#2425000
10
1<
b0 K
1]
0^
b0 _
b0 `
#2430000
00
0<
#2435000
10
1<
b0 K
1]
0^
b0 _
b0 `
#2440000
00
0<
#2445000
10
1<
b0 K
1]
0^
b0 _
b0 `
#2450000
1*
00
18
0<
b1 ?
b1 A
b0 H
0N
0O
b1 P
b1 Q
b11 R
b10 S
b10 T
#2455000
10
1<
b0 K
b1 L
1]
0^
b0 _
b0 `
#2460000
00
0<
#2465000
10
1<
b1 D
b1 K
1]
0^
b0 _
b0 `
1d
0e
#2470000
00
0<
