Adc9228_TCP_System_v3/.Xil/Vivado-18764-DESKTOP-3EGBBSD/hw_ila_data_1/zip_work/waveform.vcd
$date
        2023-Jul-18 10:00:19
$end
$version
        Vivado v2017.4 (64-bit)
$end
$timescale
        1ps
$end
$scope module dut $end
$var reg 16 " Adc3444_TCP_i/Adc9228_top_0_DataToTriCh0 [15:0] $end
$var reg 1 2 Adc3444_TCP_i/Adc9228_top_0_TrigInCh0 $end
$var reg 1 3 Adc3444_TCP_i/TriggerCh_0_oStateToFINISHIntr $end
$var reg 32 4 Adc3444_TCP_i/TriggerCh_0_m_axi_awaddr [31:0] $end
$var reg 64 T Adc3444_TCP_i/TriggerCh_0_m_axi_wdata [63:0] $end
$var reg 1 6" Adc3444_TCP_i/Adc9228_top_0_clk_10m_o $end
$var reg 1 7" _TRIGGER $end
$var reg 1 8" _WINDOW $end
$var reg 1 9" _GAP $end
$upscope $end
$enddefinitions $end
#0
$dumpvars
b111100011110 "
02
03
b100011010000101100000 4
b111110001000011111101111100000001110011110000111011110001 T
16"
07"
18"
09"
$end
#1
06"
#3
16"
#4
b111100000001 "
#5
06"
#7
16"
#8
b111011101111 "
#9
06"
#11
16"
#12
b111011101110 "
#13
06"
#15
16"
#16
b111100000000 "
#17
06"
#19
16"
#20
b111100011110 "
#21
06"
#23
16"
#24
b1111111110 "
#25
06"
#27
16"
#28
b100001 "
#29
06"
#31
16"
#32
b100010001 "
#33
06"
#35
16"
#36
b111111111 "
#37
06"
#39
16"
#40
b110010100001 "
#41
06"
#43
16"
#44
b111100001110 "
#45
06"
#47
16"
#48
b111111110001 "
#49
06"
#51
16"
#52
b111111111111 "
#53
06"
#55
16"
#57
06"
#59
16"
#61
06"
#63
16"
#65
06"
#67
16"
#69
06"
#71
16"
#73
06"
#75
16"
#77
06"
#79
16"
#81
06"
#83
16"
#85
06"
#87
16"
#89
06"
#91
16"
#93
06"
#95
16"
#97
06"
#99
16"
#101
06"
#103
16"
#105
06"
#107
16"
#109
06"
#111
16"
#113
06"
#115
16"
#117
06"
#119
16"
#121
06"
#123
16"
#125
06"
#127
16"
#128
13
17"
#129
06"
#131
16"
#132
b111111000000 "
#133
06"
#135
16"
#136
b110000000001 "
#137
06"
#139
16"
#140
b110011 "
#141
06"
#143
16"
#144
b10001111011 "
#145
06"
#147
16"
#148
b111000000 "
#149
06"
#151
16"
#152
b111110 "
#153
06"
#155
16"
#156
b111111011110 "
#157
06"
#159
16"
#160
b1011010000 "
03
#161
06"
#163
16"
#164
b1111111111 "
b111100011111000011100000000100000010111111110000000010111111 T
#165
06"
#167
16"
#168
b11101111111 "
b100011010000111100000 4
#169
06"
#171
16"
#172
b111111010000 "
#173
06"
#175
16"
#176
b10 "
b110000000000000011101110000000001111111111100000000100011111 T
#177
06"
#179
16"
#180
b111110001 "
b111111111111000011101110000000001111111100010000111000010000 T
#181
06"
#183
16"
#184
b0 "
#185
06"
#187
16"
#189
06"
#191
16"
#192
b111111111111000011111111111100001111111111110000111111111111 T
#193
06"
#195
16"
#197
06"
#199
16"
#201
06"
#203
16"
#205
06"
#207
16"
#209
06"
#211
16"
#213
06"
#215
16"
#217
06"
#219
16"
#221
06"
#223
16"
#224
b1 "
#225
06"
#227
16"
#228
b10001 "
#229
06"
#231
16"
#232
b1111 "
#233
06"
#235
16"
#236
b111001111 "
#237
06"
#239
16"
#240
b11000011 "
#241
06"
#243
16"
#244
b111011010000 "
b100011010001001100000 4
#245
06"
#247
16"
#248
b110100010011 "
#249
06"
#251
16"
#252
b10000 "
#253
06"
#255
16"
#256
b11101110 "
#257
06"
#259
16"
#260
b11100000 "
#261
06"
#263
16"
#264
b10000000011 "
#265
06"
#267
16"
#268
b111111010000 "
#269
06"
#271
16"
#272
b101011111110 "
#273
06"
#275
16"
#276
b1111010000 "
#277
06"
#279
16"
#280
b111011110000 "
#281
06"
#283
16"
#284
b110100000000 "
b111100011110000000000000000000000001010000010000111011100000 T
#285
06"
#287
16"
#288
b111011111110 "
b111100000000000011101110111000001110111011110000111100000001 T
#289
06"
#291
16"
#292
b10011 "
b100010001000000000010000100000011111111100000111100011110 T
#293
06"
#295
16"
#296
b111011111111 "
b111111110001000011110000111000001100101000010000000111111111 T
#297
06"
#299
16"
#300
b111000001111 "
b111111111111000011111111111100001111111111110000111111111111 T
#301
06"
#303
16"
#304
b1111010000 "
#305
06"
#307
16"
#308
b1111101110 "
#309
06"
#311
16"
#312
b111101110 "
b11111111111100001111111111110000111111111111 T
#313
06"
#315
16"
#316
b111000001111 "
b0 T
#317
06"
#319
16"
#320
b111111101111 "
b11111111111100001111111111110000111111111111 T
#321
06"
#323
16"
#324
b111110001 "
#325
06"
#327
16"
#328
b110100111111 "
#329
06"
#331
16"
#332
b101110 "
#333
06"
#335
16"
#336
b10111110 "
#337
06"
#339
16"
#340
b111111111111 "
