Adc9228_TCP_System_v3/.Xil/Vivado-11260-LAPTOP-7RHB2PA2/hw_ila_data_9/zip_work/waveform.vcd
$date
        2023-Aug-31 14:46:07
$end
$version
        Vivado v2017.4 (64-bit)
$end
$timescale
        1ps
$end
$scope module dut $end
$var reg 16 " Adc3444_TCP_i/Adc9228_top_0_DataToTriCh0 [15:0] $end
$var reg 1 2 Adc3444_TCP_i/Adc9228_top_0_TrigInCh0 $end
$var reg 1 3 Adc3444_TCP_i/TriggerCh_0_oStateToFINISHIntr $end
$var reg 32 4 Adc3444_TCP_i/TriggerCh_0_m_axi_awaddr [31:0] $end
$var reg 64 T Adc3444_TCP_i/TriggerCh_0_m_axi_wdata [63:0] $end
$var reg 1 6" Adc3444_TCP_i/Adc9228_top_0_clk_10m_o_1 $end
$var reg 1 7" _TRIGGER $end
$var reg 1 8" _WINDOW $end
$var reg 1 9" _GAP $end
$upscope $end
$enddefinitions $end
#0
$dumpvars
b111111111111 "
02
03
b1000110001010110000000 4
b111111100001000011111100111000001110000100010000000011110000 T
16"
07"
18"
09"
$end
#1
06"
#3
16"
#5
06"
#7
16"
#9
06"
#11
16"
#13
06"
#15
16"
#17
06"
#19
16"
#21
06"
#23
16"
#24
b111011101111 "
#25
06"
#27
16"
#28
b111100000000 "
#29
06"
#31
16"
#32
b111111110000 "
#33
06"
#35
16"
#36
b111001111 "
#37
06"
#39
16"
#40
b111111101111 "
#41
06"
#43
16"
#44
b111011111110 "
#45
06"
#47
16"
#48
b111011110001 "
#49
06"
#51
16"
#52
b111100111100 "
#53
06"
#55
16"
#56
b11100000 "
#57
06"
#59
16"
#60
b111000000011 "
#61
06"
#63
16"
#64
b111111111111 "
#65
06"
#67
16"
#68
b111110011 "
#69
06"
#71
16"
#72
b11100000 "
b100000001000011100000000100000001111011110000001100010001 T
#73
06"
#75
16"
#76
b111111111100 "
b1000110001011000000000 4
#77
06"
#79
16"
#80
b111111111111 "
#81
06"
#83
16"
#84
b111111111111000011111111111100001111111111110000111011100001 T
#85
06"
#87
16"
#88
b111111111111000011111111111100001111111111110000111111111111 T
#89
06"
#91
16"
#93
06"
#95
16"
#97
06"
#99
16"
#101
06"
#103
16"
#104
b111111000011111111111100001111111111110000111111111111 T
#105
06"
#107
16"
#108
b111000000000000011101111111100001110001111100000101111110101 T
#109
06"
#111
16"
#112
b100001111000000000000000000000001000000000000000000001110 T
#113
06"
#115
16"
#116
b1000011111000000011111000100000010000000000000110011100001 T
#117
06"
#119
16"
#120
b111100000000000000001000000001111111111010000001111000011 T
#121
06"
#123
16"
#124
b111111111111000011111111111100001111111111110000111111111111 T
#125
06"
#127
16"
#128
b11100000011111111111100001111111111110000111111111111 T
#129
06"
#131
16"
#132
b1110111110000011111111111100001111100000000000110000000011 T
#133
06"
#135
16"
#136
b0 T
#137
06"
#139
16"
#141
06"
#143
16"
#144
b111000000000000000001110000000000011110111100000000000000000 T
#145
06"
#147
16"
#148
b1110001111000000011101000000000011111011110000110000011111 T
#149
06"
#151
16"
#152
b1000110001011010000000 4
b11110000000100001110100000000000000010000101111111111 T
#153
06"
#155
16"
#157
06"
#159
16"
#160
b111111111000011100010000000001110000111100000111000100001 T
#161
06"
#163
16"
#164
b1111100010000000000000000011 T
#165
06"
#167
16"
#169
06"
#171
16"
#173
06"
#175
16"
#176
b0 T
#177
06"
#179
16"
#181
06"
#183
16"
#184
b111100000000000000000011111100000000000000000000000000000000 T
#185
06"
#187
16"
#188
b111110000000001110001100000000000100000000111111101110 T
#189
06"
#191
16"
#192
b111111110000011111000000100000001000111100000001100111111 T
#193
06"
#195
16"
#196
b111111111000011111111000100000001111111110000000000001110 T
#197
06"
#199
16"
#200
b111000000000000011111100000100001111111111100000000011101111 T
#201
06"
#203
16"
#204
b100000000000000011111001100001111110000110000000000111111 T
#205
06"
#207
16"
#208
b111100010000000000000011111100001110000100000000000100000011 T
#209
06"
#211
16"
#212
b10001000011111110000100001110111111110000111011111111 T
#213
06"
#215
16"
#216
b11101111111000000001111111000000000100000011 T
#217
06"
#219
16"
#220
b111111111111000011111111111100001111111111110000000111111111 T
#221
06"
#223
16"
#224
b111111111111000011111111111100001111111111110000111111111111 T
