Adc9228_TCP_System_v3/.Xil/Vivado-11260-LAPTOP-7RHB2PA2/hw_ila_data_1/zip_work/waveform.vcd
$date
        2023-Aug-31 14:46:08
$end
$version
        Vivado v2017.4 (64-bit)
$end
$timescale
        1ps
$end
$scope module dut $end
$var reg 16 " Adc3444_TCP_i/TriggerCh_0/inst/iAdcData [15:0] $end
$var reg 1 2 Adc3444_TCP_i/TriggerCh_0/inst/iAdcData_Tri $end
$var reg 1 3 Adc3444_TCP_i/TriggerCh_0/inst/oStateToFINISHIntr $end
$var reg 64 4 Adc3444_TCP_i/TriggerCh_0/inst/m_axi_wdata [63:0] $end
$var reg 1 t Adc3444_TCP_i/TriggerCh_0/inst/m_axi_wvalid $end
$var reg 32 u Adc3444_TCP_i/TriggerCh_0/inst/m_axi_awaddr [31:0] $end
$var reg 32 7" Adc3444_TCP_i/TriggerCh_0/inst/wTrigToggle [31:0] $end
$var reg 1 W" _TRIGGER $end
$var reg 1 X" _WINDOW $end
$var reg 1 Y" _GAP $end
$upscope $end
$enddefinitions $end
#0
$dumpvars
b0 "
02
03
b0 4
0t
b0 u
b0 7"
0W"
1X"
0Y"
$end
#483
b1000110000111000000000 u
#484
1t
#502
0t
b1000110000111010000000 u
#503
1t
#521
0t
#611
b1000110000111100000000 u
#612
1t
#630
0t
b1000110000111110000000 u
#631
1t
#649
0t
#739
b1000110001000000000000 u
#740
1t
#758
0t
b1000110001000010000000 u
#759
1t
#777
0t
#867
b1000110001000100000000 u
#868
1t
#886
0t
b1000110001000110000000 u
#887
1t
#905
0t
#969
12
#970
02
#971
b111111111111 "
#975
b10011101100 7"
#988
b111000001100 "
#989
b10000 "
#991
b111011101111 "
#992
b111111110001 "
#993
b111000011111 "
#994
b111111111111 "
#995
b1000110001001000000000 u
#996
1t
#1004
b111000011111 "
#1005
b11101100 "
#1006
b111111111111 "
#1007
b0 "
#1014
0t
b1000110001001010000000 u
#1015
b111011100011 "
1t
#1016
b100010011 "
#1017
b111111110 "
#1018
b111111111111 "
#1028
b111111000011 "
#1029
b101010000 "
#1030
b0 "
b111111111111000011111111111100000000000000000000000000000000 4
#1031
b111111111111000011111111111100001111111111110000111111111111 4
#1033
0t
#1038
b11100001 "
#1039
b111000000001 "
#1040
b100111110 "
#1041
b111111111111 "
#1051
b111111111 "
#1052
b1 "
#1053
b111000101111 "
#1054
b0 "
#1065
b11110001 "
#1066
b11100000 "
#1067
b111011110001 "
#1068
b111100000 "
#1069
b111111111111 "
#1077
b111000111111 "
#1078
b111010000 "
#1079
b0 "
#1092
b10000 "
#1093
b110000110000 "
#1094
b1000000000 "
#1095
b111100000001 "
#1096
b111110001 "
#1097
b110001110001 "
#1098
b111111111111 "
#1104
b111111010011 "
#1105
b111111100001 "
#1106
b1110 "
#1107
b0 "
#1112
b1111 "
#1113
b111110 "
#1114
b101110 "
#1115
b11111110 "
#1116
b100001110 "
#1117
b100111110 "
#1118
b111000001 "
#1119
b111110011 "
#1120
b111000001100 "
#1121
b111100001 "
#1122
b111011111101 "
#1123
b11110 "
b1000110001001100000000 u
#1124
b100001111110 "
1t
#1125
b111111111111 "
b111000001100000011111111111100001111111111110000111111111111 4
#1126
b111111110001000011101110111100000000000100000000000000010000 4
#1129
b111111111111000011111111111100001111111111110000111000011111 4
#1130
b111111111111000011111111111100001111111111110000111111111111 4
#1131
b111000111111 "
b111000011111000011111111111100001111111111110000111111111111 4
#1132
b100000 "
b1111111111110000000011101100 4
#1133
b111111 "
b0 4
#1134
b100000001 "
b100010011000011101110001100000000000000000000000000000000 4
#1135
b100011110 "
b111111111111000011111111111100001111111111110000000111111110 4
#1136
b111100001 "
b111111111111000011111111111100001111111111110000111111111111 4
#1137
b111110001 "
b111111000011000011111111111100001111111111110000111111111111 4
#1138
b111000000000 "
b101010000 4
#1139
b111000010000 "
b0 4
#1140
b111011100000 "
b100111110000011100000000100000000111000010000000000000000 4
#1141
b111110111111 "
b111111111111000011111111111100001111111111110000111111111111 4
#1142
b111011111111 "
0t
b1000110001001110000000 u
#1143
b111100001111 "
1t
#1144
b111100011110 "
b1000000011111111100001111111111110000111111111111 4
#1145
b111111100001 "
b111000101111 4
#1146
b111111110001 "
#1147
b0 "
#1148
b1111 "
b0 4
#1149
b110000011111 "
#1150
b11111 "
b111100000000011101111000100000000111000000000000011110001 4
#1151
b1011111111 "
b111111111111000011111111111100001111111111110000111111111111 4
#1152
b111101111 "
#1153
b111111010000 "
b1110100000000111000111111 4
#1154
b111111111 "
b0 4
#1155
b111100010001 "
#1156
b1110100000 "
b10000000000000000000000000000000000000000000000000000 4
#1157
b101111 "
b111110001000011110000000100000010000000000000110000110000 4
#1158
b111100 "
b111111111111000011111111111100001111111111110000110001110001 4
#1159
b111000100000 "
b111111010011000011111111111100001111111111110000111111111111 4
#1160
b100010 "
b11100000111111100001 4
#1161
b10000001111 "
0t
#1162
b10001110011 "
#1163
b110111010001 "
#1164
b111100000 "
#1165
b111110000 "
#1166
b111111111 "
#1167
b111000001110 "
#1168
b111000010011 "
#1169
b111011100000 "
#1170
b111011101111 "
#1171
b111011111111 "
#1172
b111100001100 "
#1173
b111100010001 "
#1174
b111111100000 "
#1175
b111111101111 "
#1176
b111111111 "
#1177
b0 "
#1178
b111011101111 "
#1179
b111101111011 "
#1180
b111111111111 "
#1187
b111011111 "
#1188
b111100 "
#1189
b101110001110 "
#1190
b11101100000 "
#1191
b111101111 "
#1192
b111111111 "
#1193
b111000001100 "
#1194
b111000010001 "
#1195
b111011100000 "
#1196
b111011101111 "
#1197
b111011111110 "
#1198
b111100000011 "
#1199
b111100010000 "
#1200
b111100111111 "
#1201
b111101110 "
#1202
b1000011 "
#1203
b111111101110 "
#1204
b111101110 "
#1205
b111111111111 "
#1216
b111100011111 "
#1217
b11111111 "
#1218
b111010000 "
#1219
b0 "
#1226
b100010000 "
#1227
b1 "
#1228
b111011110000 "
#1229
b11000011 "
#1230
b111100010000 "
#1231
b111111111111 "
#1245
b111100010000 "
#1246
b111110000 "
#1247
b111011100011 "
#1248
b0 "
#1250
b1111000000000000000000000000000000000000000000000000 4
#1251
b1000110001010000000000 u
#1252
1t
#1253
b100001110000000001111111000000000001011100000000000111110 4
#1254
b1000000 "
b111000001100000000011111001100000001110000010000000100111110 4
#1255
b111000001111 "
#1256
b111000011111 "
#1257
b111100010011 "
b100001111110000000000001111000001110111111010000000111100001 4
#1258
b111110000 "
b111111111111000011111111111100001111111111110000111111111111 4
#1259
b111111111111 "
b100000000011100011111100001111111111110000111111111111 4
#1260
b111100001000000010001111000000001000000010000000000111111 4
#1261
b111011100000000011100001000000001110000000000000000111110001 4
#1262
b111100011110000011110000111100001110111111110000111110111111 4
#1263
b1111000000000000000000001111111100010000111111100001 4
#1264
b111101111000000101111111100000000000111110000110000011111 4
#1265
b1110100000000011110001000100000001111111110000111111010000 4
#1266
b100010000011100010000000000000001111000000000000101111 4
#1267
b111100000000011011101000100000100011100110000010000001111 4
#1268
b111000010011000011100000111000000001111111110000000111110000 4
#1269
b111100001100000011101111111100001110111011110000111011100000 4
#1270
b111111111000011111110111100001111111000000000111100010001 4
0t
b1000110001010010000000 u
#1271
1t
#1272
b100111111 "
b111111111111000011110111101100001110111011110000000000000000 4
#1273
b111000000 "
b111111111111000011111111111100001111111111110000111111111111 4
#1274
b111000000001 "
#1275
b0 "
#1276
b111100000000011101111100001111111111110000111111111111 4
#1277
b111111111000000011110111100000111011000000000101110001110 4
#1278
b111011101111000011101110000000001110000100010000111000001100 4
#1279
b111100111111000011110001000000001111000000110000111011111110 4
#1280
b111101110000011111110111000000000010000110000000111101110 4
#1281
b111111111111000011111111111100001111111111110000111111111111 4
#1282
b111101110 "
#1283
b111000111111 "
b111100011111000011111111111100001111111111110000111111111111 4
#1284
b100111111 "
b1110100000000000011111111 4
#1285
b111011111111 "
b0 4
#1286
b111111100 "
b111011110000000000000000000100000001000100000000000000000000 4
#1287
b111111111111 "
b111111111111000011111111111100001111000100000000000011000011 4
#1288
b111111111111000011111111111100001111111111110000111111111111 4
#1289
0t
#1302
b11111111111 "
#1303
b111000010011 "
#1304
b111010000 "
#1305
b111000100001 "
#1306
b111000111100 "
#1307
b11110011 "
#1308
b111111110 "
#1309
b111100000000 "
#1310
b111000010000 "
#1311
b1110 "
#1312
b111111111110 "
#1313
b111111111111 "
#1331
b111000111100 "
#1332
b111100010000 "
#1333
b111000011110 "
#1334
b100001 "
#1335
b111000000000 "
#1336
b11111 "
#1337
b100000000 "
#1338
b100000001 "
#1339
b1 "
#1340
b111111111100 "
#1341
b111111111111 "
#1359
b10011 "
#1360
b111110001 "
#1361
b11110000 "
#1362
b111000010001 "
#1363
b111111001110 "
#1364
b111111100001 "
#1365
b1100010001 "
#1366
b111101111 "
#1367
b111000000001 "
#1368
b100000001 "
#1369
b111011100001 "
#1370
b111111111111 "
#1379
b1000110001010100000000 u
#1380
1t
#1382
b11101110001100000001111100000000111100010000 4
#1384
b111111 "
#1385
b101111110101 "
b0 4
#1386
b111000111110 "
b111000011111000011100000111100000000010000000000000000000000 4
#1387
b111011111111 "
b111111111111000011111111111100000001111100000000111100010011 4
#1388
b111000000000 "
b111111111111000011111111111100001111111111110000111111111111 4
#1389
b1110 "
#1390
b100000000 "
b100111111000011111111111100001111111111110000111111111111 4
#1391
b0 "
b1110000000010000000111000000 4
#1392
b100001111 "
b0 4
#1393
b110011100001 "
b100111111000011100011111100000001111011100000000000000000 4
#1394
b1000000000 "
b111111111111000011111111111100000001111111000000111011111111 4
#1395
b111110001 "
b111111111111000011111111111100001111111111110000111111111111 4
#1396
b1000011111 "
#1397
b1111000011 "
#1398
b111111111101 "
b111010000000011100001001100000111111111110000111111111111 4
0t
b1000110001010110000000 u
#1399
b10000 "
1t
#1400
b111100000 "
b111111110000000001111001100001110001111000000111000100001 4
#1401
b111111111111 "
b111111111110000000000000111000001110000100000000111100000000 4
#1404
b111111111111000011111111111100001111111111110000111111111111 4
#1408
b11100 "
b111100010000000011100011110000001111111111110000111111111111 4
#1409
b110000000011 "
b11111000011100000000000000000001000010000111000011110 4
#1410
b111110000000 "
b111111111100000000000000000100000001000000010000000100000000 4
#1411
b111111111111 "
b111111111111000011111111111100001111111111110000111111111111 4
#1412
b1110111110 "
#1413
b0 "
#1415
b111110001000000000001001100001111111111110000111111111111 4
#1416
b111111100001000011111100111000001110000100010000000011110000 4
#1417
0t
#1422
b1111011110 "
#1423
b11100000 "
#1424
b111000000000 "
#1425
b110000011111 "
#1426
b1111101111 "
#1427
b111010000 "
#1428
b1110001111 "
#1429
b101111111111 "
#1430
b1 "
#1431
b1000011101 "
#1432
b11110 "
#1433
b111000100001 "
#1434
b111000011110 "
#1435
b111000100000 "
#1436
b111111111 "
#1437
b11 "
#1438
b111110001000 "
#1439
b0 "
#1451
b111111 "
#1452
b111100000000 "
#1453
b111111101110 "
#1454
b10000 "
#1455
b11100011 "
#1456
b111110 "
#1457
b1100111111 "
#1458
b100011110 "
#1459
b111110000001 "
#1460
b111111110 "
#1461
b1110 "
#1462
b111111111 "
#1463
b111111110001 "
#1464
b111111111 "
#1465
b11101111 "
#1466
b111111111110 "
#1467
b111111000001 "
#1468
b111000000000 "
#1469
b111111 "
#1470
b111111000011 "
#1471
b111110011 "
#1472
b100000000 "
#1473
b100000011 "
#1474
b111000010000 "
#1475
b111111 "
#1476
b111100010000 "
#1477
b111011111111 "
#1479
b111111100001 "
#1480
b10001 "
#1481
b100000011 "
#1482
b111111100 "
#1483
b111011111110 "
#1484
b0 "
#1485
b111111111 "
#1486
b111111111111 "
#1494
b111011101111 "
#1495
b111100000000 "
#1496
b111111110000 "
#1497
b111001111 "
#1498
b111111101111 "
#1499
b111011111110 "
#1500
b111011110001 "
#1501
b111100111100 "
#1502
b11100000 "
#1503
b111000000011 "
#1504
b111111111111 "
#1505
b111110011 "
#1506
b11100000 "
b100000001000011100000000100000001111011110000001100010001 4
#1507
b111111111100 "
b1000110001011000000000 u
#1508
b111111111111 "
1t
#1509
b111111111111000011111111111100001111111111110000111011100001 4
#1510
b111111111111000011111111111100001111111111110000111111111111 4
#1514
b111111000011111111111100001111111111110000111111111111 4
#1515
b111000000000000011101111111100001110001111100000101111110101 4
#1516
b100001111000000000000000000000001000000000000000000001110 4
#1517
b1000011111000000011111000100000010000000000000110011100001 4
#1518
b111100000000000000001000000001111111111010000001111000011 4
#1519
b111111111111000011111111111100001111111111110000111111111111 4
#1520
b11100000011111111111100001111111111110000111111111111 4
#1521
b1110111110000011111111111100001111100000000000110000000011 4
#1522
b0 4
#1524
b111000000000000000001110000000000011110111100000000000000000 4
#1525
b1110001111000000011101000000000011111011110000110000011111 4
#1526
b11110000000100001110100000000000000010000101111111111 4
0t
b1000110001011010000000 u
#1527
1t
#1528
b111111111000011100010000000001110000111100000111000100001 4
#1529
b1111100010000000000000000011 4
#1532
b0 4
#1534
b111100000000000000000011111100000000000000000000000000000000 4
#1535
b111110000000001110001100000000000100000000111111101110 4
#1536
b111111110000011111000000100000001000111100000001100111111 4
#1537
b111111111000011111111000100000001111111110000000000001110 4
#1538
b111000000000000011111100000100001111111111100000000011101111 4
#1539
b100000000000000011111001100001111110000110000000000111111 4
#1540
b111100010000000000000011111100001110000100000000000100000011 4
#1541
b10001000011111110000100001110111111110000111011111111 4
#1542
b11101111111000000001111111000000000100000011 4
#1543
b111111111111000011111111111100001111111111110000000111111111 4
#1544
b111111111111000011111111111100001111111111110000111111111111 4
#1545
0t
#1584
b111011101100 "
#1585
b1111 "
#1586
b111000000001 "
#1587
b10011 "
#1588
b111111000001 "
#1589
b111000011110 "
#1590
b111111100 "
#1591
b100001111 "
#1592
b110000000000 "
#1593
b1011100000 "
#1594
b100000 "
#1595
b111000011111 "
#1596
b110000010001 "
#1597
b1000011110 "
#1598
b110111111 "
#1599
b111100000011 "
#1600
b111110000 "
#1601
b1100011100 "
#1602
b1111 "
#1603
b111100000110 "
#1604
b11111111011 "
#1605
b1000111111 "
#1606
b111111100101 "
#1607
b111000111111 "
#1608
b11111111 "
#1609
b0 "
#1628
b111111111 "
#1629
b10 "
#1630
b111100001 "
#1631
b10111010000 "
#1632
b1111111100 "
#1633
b111001110 "
#1634
b111110 "
b111111110000000011110000000000001110111011110000111111111111 4
#1635
b1 "
b1000110001011100000000 u
#1636
b101110 "
1t
#1637
b111110 "
b111011110001000011101111111000001111111011110000000111001111 4
#1638
b1110 "
b111111111111000011100000001100000000111000000000111100111100 4
#1639
b1110111 "
#1640
b1111000 "
#1641
b111111101 "
b111111111111000011111111110000000000111000000000000111110011 4
#1642
b11100000 "
b111111111111000011111111111100001111111111110000111111111111 4
#1643
b111000010001 "
#1644
b111000100000 "
#1645
b111000110000 "
#1646
b1000111111 "
#1647
b111111001111 "
#1648
b111111011110 "
#1649
b111111101100 "
#1650
b111111110001 "
#1651
b0 "
#1652
b10000 "
#1653
b1111111 "
#1654
b11101111 "
0t
b1000110001011110000000 u
#1655
b11111110 "
1t
#1656
b100000011 "
#1657
b100010001 "
#1658
b111100000 "
#1659
b110111100011 "
#1660
b110111111110 "
#1661
b111000001110 "
#1662
b111000010001 "
#1663
b111000100000 "
b111011101100000011111111111100001111111111110000111111111111 4
#1664
b11110100011 "
b111111000001000000000001001100001110000000010000000000001111 4
#1665
b111011111110 "
b110000000000000000010000111100000001111111000000111000011110 4
#1666
b111100000011 "
b110000010001000011100001111100000000001000000000001011100000 4
#1667
b111100010000 "
b111110000000011110000001100000001101111110000001000011110 4
#1668
b111111111111 "
b11111111011000011110000011000000000000011110000001100011100 4
#1669
b111111101110 "
b11111111000011100011111100001111111001010000001000111111 4
#1670
b111111110011 "
b0 4
#1671
b0 "
#1672
b1111 "
#1673
b11110 "
0t
#1674
b11100001 "
#1675
b11110000 "
#1676
b11111110 "
#1677
b100000011 "
#1678
b100010000 "
#1679
b100111111 "
#1680
b111101100 "
#1681
b111110000 "
#1682
b111111111 "
#1683
b111000001110 "
#1684
b111000010001 "
#1685
b111000111111 "
#1686
b111011101110 "
#1687
b1011111101 "
#1688
b1011111111 "
#1689
b1100001110 "
#1690
b111100011100 "
#1691
b111111011111 "
#1692
b111111101110 "
#1693
b111111110000 "
#1694
b111111111111 "
#1695
b1 "
#1696
b10000 "
#1697
b11110 "
#1698
b100001 "
#1699
b101111 "
#1700
b111100 "
#1701
b100000000 "
#1702
b100001111 "
#1703
b100010001 "
#1704
b111100001 "
#1705
b111111100000 "
#1706
b111111110000 "
#1707
b0 "
#1708
b11111111 "
#1709
b111110011 "
#1710
b111100001100 "
#1711
b11100011 "
#1712
b111000000001 "
#1713
b111100010000 "
#1714
b111111111111 "
#1763
b1000110001100000000000 u
#1764
1t
#1765
b111111111000000000000000000000000000000000000000000000000 4
#1766
b1111111100000001011101000000000001111000010000000000000010 4
#1769
b101110000000000000000100000000001111100000000111001110 4
#1770
b1111000000000000111011100000000000011100000000000111110 4
#1771
b111000100000000011100001000100000000111000000000000111111101 4
#1772
b111111011110000011111100111100000010001111110000111000110000 4
#1773
b10000000000000000000000001111111100010000111111101100 4
#1774
b100000011000000001111111000000000111011110000000001111111 4
#1775
b110111111110000011011110001100000001111000000000000100010001 4
#1776
b11110100011000011100010000000001110000100010000111000001110 4
#1777
b111111111111000011110001000000001111000000110000111011111110 4
#1778
b1111000000000000000000001111111100110000111111101110 4
#1779
b1000011101 "
b11111110000000001111000000000000111000010000000000011110 4
#1780
b11 "
b111101100000000010011111100000001000100000000000100000011 4
#1781
b111111000011 "
b111000010001000011100000111000000001111111110000000111110000 4
#1782
b111111010001 "
b1011111111000000101111110100001110111011100000111000111111 4
0t
b1000110001100010000000 u
#1783
b101111 "
1t
#1784
b111111000000 "
b111111101110000011111101111100001111000111000000001100001110 4
#1785
b111111111110 "
b10000000000000000000100001111111111110000111111110000 4
#1786
b111011110 "
#1787
b111111111100 "
#1788
b111000111100 "
b111100000000000010111100000000001000010000000000011110 4
#1789
b111000000011 "
b111100001000000010001000100000001000011110000000100000000 4
#1790
b101111110 "
b11111111000000000000000000001111111100000000111111100000 4
#1791
b100000 "
b111000000001000000001110001100001111000011000000000111110011 4
#1792
b111111101100 "
b111111111111000011111111111100001111111111110000111100010000 4
#1793
b111000001110 "
b111111111111000011111111111100001111111111110000111111111111 4
#1794
b111111101110 "
#1795
b111111111111 "
#1796
b111111100000 "
#1797
b110111101111 "
#1798
b111000100000 "
#1799
b111000000000 "
#1800
b11 "
#1801
b111110 "
0t
#1802
b111000111100 "
#1803
b1111 "
#1804
b111111110 "
#1805
b10110001 "
#1806
b0 "
#1816
b111111110 "
#1817
b1 "
#1818
b111010111110 "
#1819
b100011111 "
#1820
b111111001110 "
#1822
b100001111 "
#1823
b111000010000 "
#1824
b111111011111 "
#1825
b11111111 "
#1826
b0 "
#1843
b111110000 "
#1844
b1100 "
#1845
b111000010000 "
#1846
b110100011111 "
#1847
b111111110001 "
#1848
b110111110011 "
#1849
b1111111111 "
#1850
b100011110 "
#1851
b111000000 "
#1852
b111000001 "
#1853
b100011110 "
#1854
b111101110 "
#1855
b111110011 "
#1856
b1000000001 "
#1857
b101000010001 "
#1858
b10000000 "
#1859
b1000111100 "
#1860
b111111000000 "
#1861
b111111001111 "
#1862
b11111111 "
#1863
b111111101110 "
#1864
b111111110011 "
#1865
b1 "
#1866
b10000 "
#1867
b100000 "
#1868
b11101111 "
#1869
b11111110 "
#1870
b100000011 "
#1871
b100010001 "
#1872
b111100000 "
#1873
b111101111 "
#1874
b111111110 "
#1875
b111000000011 "
#1876
b111000010001 "
#1877
b111011100000 "
#1878
b111011101111 "
#1879
b111011111110 "
#1880
b111100000001 "
#1881
b111100010000 "
#1882
b111100011111 "
#1883
b111111101110 "
#1884
b111111110001 "
#1885
b0 "
#1886
b1111 "
#1887
b100000000111 "
#1888
b100001 "
#1889
b110000 "
#1890
b11111111 "
#1891
b111000010 "
b1000110001100100000000 u
#1892
b111010000 "
1t
#1893
b111011111 "
#1894
b111101110 "
#1895
b111110001 "
#1896
b111000111110 "
#1897
b111011110000 "
#1898
b111000010001 "
#1899
b111101111 "
#1900
b111111101111 "
#1901
b111011111110 "
b11000000100001110100001111111111110000111111111111 4
#1902
b111000111111 "
b111111000000000000000010111100001111110100010000111111000011 4
#1903
b100011100 "
b111000111100000011111111110000000001110111100000111111111110 4
#1904
b111111101111 "
b111111101100000000000010000000000001011111100000111000000011 4
#1905
b100000001 "
b111111100000000011111111111100001111111011100000111000001110 4
#1906
b111110011 "
b11000011100000000000001110001000000000110111101111 4
#1907
b111000000000 "
b111111110000000000000111100001110001111000000000000111110 4
#1908
b111111110 "
b10110001 4
#1909
b11110001110 "
b0 4
#1910
b111000100011 "
b111111110000000000000000000000000000000000000000000000000 4
0t
b1000110001100110000000 u
#1911
b111111100000 "
1t
#1912
b110001 "
b111111001110000000010001111100001110101111100000000000000001 4
#1913
b111011100010 "
b111111011111000011100001000000000001000011110000111111001110 4
#1914
b11111111 "
#1915
b1110 "
#1916
b10000 "
b11111111 4
#1917
b100000001 "
b0 4
#1918
b111011100000 "
#1919
b111111111111 "
#1920
b1100000000011111000000000000000000000000000000000000 4
#1921
b110111110011000011111111000100001101000111110000111000010000 4
#1922
b111000001000000011100000000000001000111100000001111111111 4
#1923
b1000000001000000011111001100000001111011100000000100011110 4
#1924
b111111000000000000100011110000000000100000000000101000010001 4
#1925
b111111110011000011111110111000000000111111110000111111001111 4
#1926
b11101111000000000010000000000000000100000000000000000001 4
#1927
b111100000000000010001000100000001000000110000000011111110 4
#1928
b111000010001000011100000001100000001111111100000000111101111 4
#1929
0t
#1992
b110011111111 "
#1993
b111111110000 "
#1994
b100001110 "
#1995
b1111010001 "
#1996
b111000000011 "
#1997
b1000111110 "
#1998
b11 "
#1999
b111111100001 "
#2000
b111000000 "
13
1W"
#2001
b111111111101 "
#2002
b11111001110 "
#2003
b111111001110 "
#2004
b111000100001 "
#2005
b1111110 "
#2006
b111111100010 "
#2007
b11111 "
#2008
03
#2009
b111111101111 "
b111100000001000011101111111000001110111011110000111011100000 4
#2010
b111000001111 "
b1000110001101000000000 u
#2011
b111100010001 "
1t
#2012
b111100001100 "
b111111110001000011111110111000001111000111110000111100010000 4
#2013
b100111111 "
b100001000010000000011100000000000011110000000000000000 4
#2014
b111000010000 "
#2015
b111100000 "
#2016
b111111110000 "
b111010000000000011100001000000000111111110000000000110000 4
#2017
b111111110001 "
b111000111110000000011111000100000001111011100000000111011111 4
#2018
b0 "
b111111101111000000011110111100001110000100010000111011110000 4
#2019
b111111101111000000010001110000001110001111110000111011111110 4
#2020
b111111110000011100000000000000001111100110000000100000001 4
#2021
b110001000011111110000000001110001000110000011110001110 4
#2022
b10000000000000000111000000000111111110000111011100010 4
#2023
b111111111111000011111111111100001110111000000000000100000001 4
#2024
b111111111111000011111111111100001111111111110000111111111111 4
#2029
0t
b1000110001101010000000 u
#2030
b111110 "
1t
#2031
b1000001110 "
#2032
b110000011100 "
#2033
b11110000011 "
#2034
b11111110000 "
#2035
b111011101111 "
#2036
b111000001111 "
#2037
b111111 "
#2038
b111000001111 "
#2039
b0 "
#2044
b110011111111000011111111111100001111111111110000111111111111 4
#2045
b111101000100000001000011100000111111110000 4
#2046
b0 4
